<?xml version="1.0" encoding="utf-8"?>
<!-- Generator: Adobe Illustrator 21.1.0, SVG Export Plug-In . SVG Version: 6.00 Build 0)  -->
<svg version="1.1" id="Capa_1" xmlns="http://www.w3.org/2000/svg" xmlns:xlink="http://www.w3.org/1999/xlink" x="0px" y="0px"
	 viewBox="0 0 96 96" style="enable-background:new 0 0 96 96;" xml:space="preserve">
<style type="text/css">
	.st0{fill:#888888;}
</style>
<g>
	<g>
		<path class="st0" d="M87.6,11.4H8.4c-4.6,0-8.4,3.8-8.4,8.4v56.3c0,4.6,3.8,8.4,8.4,8.4h79.1c4.6,0,8.4-3.8,8.4-8.4V19.9
			C96,15.2,92.2,11.4,87.6,11.4z M86.4,17.1L48.2,55.3L9.6,17.1H86.4z M5.6,75V21l27.1,26.9L5.6,75z M9.6,78.9l27.1-27.1l9.5,9.4
			c1.1,1.1,2.9,1.1,4,0l9.3-9.3l27,27C86.5,78.9,9.6,78.9,9.6,78.9z M90.4,75l-27-27l27-27V75z"/>
	</g>
</g>
</svg>
