<?xml version="1.0" encoding="utf-8"?>
<!-- Generator: Adobe Illustrator 21.1.0, SVG Export Plug-In . SVG Version: 6.00 Build 0)  -->
<svg version="1.1" id="Layer_1" xmlns="http://www.w3.org/2000/svg" xmlns:xlink="http://www.w3.org/1999/xlink" x="0px" y="0px"
	 viewBox="0 0 488 439.9" style="enable-background:new 0 0 488 439.9;" xml:space="preserve">
<style type="text/css">
	.st0{fill:#0378A3;}
	.st1{fill:#F6967D;}
	.st2{fill:#F4ECA2;}
	.st3{fill:#F7F2DA;}
	.st4{fill:#F2F2F2;}
	.st5{fill:none;stroke:#F2F2F2;stroke-width:2;stroke-miterlimit:10;}
	.st6{fill:#ED1C24;}
	.st7{fill:#5BC9E1;}
	.st8{fill:#00BBD6;}
	.st9{fill:#FBB03B;}
	.st10{fill:#29485A;}
	.st11{fill:#C0E5E7;}
	.st12{fill:#06AAE9;}
</style>
<path class="st0" d="M104,95.9H64l-40,104h432l-40-104L104,95.9z"/>
<path class="st1" d="M95.7,199.9C69.3,120.2,112.4,34.2,192.1,7.8c79.7-26.4,165.7,16.7,192.1,96.4c10.3,31.1,10.3,64.7,0,95.7"/>
<path class="st2" d="M248,103.3l-79.4,14.3c-14.7,3.2-25,16.4-24.6,31.3v51h192V125c0.8-16.7-12.1-30.8-28.7-31.6
	c-1.8-0.1-3.7,0-5.5,0.2l-2,0.4L248,103.3z"/>
<path class="st3" d="M48,199.9h384v232H48V199.9z"/>
<path class="st4" d="M144.4,143.9H336v-16H151.5C147.7,132.5,145.3,138,144.4,143.9z"/>
<path class="st5" d="M144,167.9h192"/>
<path class="st6" d="M304,79.9c0,17.7-14.3,32-32,32s-32-14.3-32-32s14.3-32,32-32S304,62.2,304,79.9z"/>
<path class="st7" d="M184,431.9v-80c0-30.9,25.1-56,56-56s56,25.1,56,56v80H184z"/>
<path d="M279.5,71.9h-15v-4.2c0-24.9,13.9-47.3,36.1-58.5l6.7,13.4c-17.2,8.6-27.9,25.9-27.9,45.1v4.2L279.5,71.9z"/>
<path class="st8" d="M240,431.9v-136c30.9,0,56,25.1,56,56v80H240z"/>
<path class="st0" d="M240,359.9h16v16h-16V359.9z"/>
<path class="st0" d="M224,359.9h16v16h-16V359.9z"/>
<path class="st9" d="M24,199.9h48v24c0,13.3-10.7,24-24,24s-24-10.7-24-24V199.9z"/>
<path class="st8" d="M72,199.9h48v24c0,13.3-10.7,24-24,24s-24-10.7-24-24V199.9z"/>
<path class="st9" d="M120,199.9h48v24c0,13.3-10.7,24-24,24s-24-10.7-24-24V199.9z"/>
<path class="st8" d="M168,199.9h48v24c0,13.3-10.7,24-24,24s-24-10.7-24-24V199.9z"/>
<path class="st9" d="M216,199.9h48v24c0,13.3-10.7,24-24,24s-24-10.7-24-24V199.9z"/>
<path class="st8" d="M264,199.9h48v24c0,13.3-10.7,24-24,24s-24-10.7-24-24V199.9z"/>
<path class="st9" d="M312,199.9h48v24c0,13.3-10.7,24-24,24s-24-10.7-24-24V199.9z"/>
<path class="st8" d="M360,199.9h48v24c0,13.3-10.7,24-24,24s-24-10.7-24-24V199.9z"/>
<path class="st9" d="M408,199.9h48v24c0,13.3-10.7,24-24,24s-24-10.7-24-24V199.9z"/>
<path class="st10" d="M0,423.9h488v16H0V423.9z"/>
<path class="st11" d="M136,319.9c0,13.3-10.7,24-24,24s-24-10.7-24-24s10.7-24,24-24S136,306.6,136,319.9z"/>
<path class="st11" d="M392,319.9c0,13.3-10.7,24-24,24s-24-10.7-24-24s10.7-24,24-24S392,306.6,392,319.9z"/>
<g>
	<path class="st12" d="M112,359.9c-22.1,0-40-17.9-40-40c0-22.1,17.9-40,40-40s40,17.9,40,40C152,342,134.1,359.9,112,359.9z
		 M112,295.9c-13.3,0-24,10.7-24,24s10.7,24,24,24s24-10.7,24-24S125.3,295.9,112,295.9z"/>
	<path class="st12" d="M368,359.9c-22.1,0-40-17.9-40-40c0-22.1,17.9-40,40-40s40,17.9,40,40C408,342,390.1,359.9,368,359.9z
		 M368,295.9c-13.3,0-24,10.7-24,24s10.7,24,24,24s24-10.7,24-24S381.3,295.9,368,295.9z"/>
</g>
</svg>
