<?xml version="1.0" encoding="utf-8"?>
<!-- Generator: Adobe Illustrator 21.1.0, SVG Export Plug-In . SVG Version: 6.00 Build 0)  -->
<svg version="1.1" id="Layer_1" xmlns="http://www.w3.org/2000/svg" xmlns:xlink="http://www.w3.org/1999/xlink" x="0px" y="0px"
	 viewBox="0 0 298.5 417.4" style="enable-background:new 0 0 298.5 417.4;" xml:space="preserve">
<style type="text/css">
	.st0{fill-rule:evenodd;clip-rule:evenodd;fill:#3C1B48;}
</style>
<path class="st0" d="M257.2,273.1c-12.2,7-23.7,13.5-35.1,20.1c-24.8,14.2-49.5,28.3-74.2,42.6c-2.2,1.3-3.7,1.3-5.9,0.1
	C95.6,309,49.4,282.3,3,255.6c-2.4-1.4-3-2.9-3-5.5c0.1-54.3,0.1-108.5,0-162.8c0-2.8,0.9-4.3,3.3-5.7c46.3-26.9,92.6-54,138.9-80.9
	c1.2-0.7,3.5-1,4.7-0.3c44,25.1,87.8,50.4,131.7,75.6c0.7,0.4,1.2,0.9,2,1.4c-7,12.5-13.9,25-21,37.7c-11.2-6.5-22.1-12.7-33-19
	c-26.3-15.1-52.6-30.2-78.8-45.4c-2.1-1.2-3.7-1.3-6,0c-32.3,18.8-64.6,37.6-97,56.3c-2.2,1.2-3.1,2.6-3,5.1
	c0.2,9.3,0.1,18.5,0.1,27.8c0,1.1,0.2,2.2,0.3,4c2.9-1.6,5.3-3,7.7-4.3c33.8-19.3,67.6-38.7,101.3-58.1c2.4-1.4,4.2-1.4,6.6,0
	c45.8,27,91.7,53.9,137.6,80.8c2.3,1.4,3.1,2.8,3.1,5.5c-0.1,54.3-0.1,108.5,0,162.8c0,2.8-0.9,4.3-3.3,5.7
	c-45.9,26.6-91.8,53.3-137.6,80c-2,1.2-3.6,1.6-5.9,0.2c-43.2-24.9-86.4-49.8-129.6-74.6c-1.1-0.6-2.1-1.3-3.5-2.2
	c7.3-12.1,14.4-23.9,21.8-36.2c6.9,3.9,13.5,7.7,20.1,11.6c30.3,17.5,60.5,35,90.7,52.6c2.4,1.4,4.2,1.4,6.6,0
	c32.1-19,64.2-37.9,96.4-56.7c2.4-1.4,3.4-2.9,3.3-5.7c-0.2-9.3-0.1-18.5-0.1-27.8C257.4,276.4,257.3,275.2,257.2,273.1z M257.5,206
	c0-4.8-0.1-9.5,0.1-14.3c0.1-2.4-0.8-3.7-2.8-4.9c-32.8-18.8-65.5-37.7-98.3-56.4c-1.3-0.8-3.9-0.9-5.2-0.1
	c-35.7,20.7-71.3,41.5-106.8,62.4c-1.3,0.8-2.5,2.9-2.5,4.5c-0.2,9.1,0,18.3-0.2,27.4c0,2.4,0.9,3.7,2.9,4.9
	c32.8,19.3,65.5,38.7,98.3,57.9c1.3,0.8,3.8,0.9,5.1,0.1c35.7-20.7,71.3-41.5,106.8-62.4c1.3-0.8,2.4-2.9,2.5-4.5
	C257.7,215.8,257.5,210.9,257.5,206z"/>
</svg>
