<?xml version="1.0" encoding="utf-8"?>
<!-- Generator: Adobe Illustrator 21.1.0, SVG Export Plug-In . SVG Version: 6.00 Build 0)  -->
<svg version="1.1" id="Capa_1" xmlns="http://www.w3.org/2000/svg" xmlns:xlink="http://www.w3.org/1999/xlink" x="0px" y="0px"
	 viewBox="0 0 96 96" style="enable-background:new 0 0 96 96;" xml:space="preserve">
<style type="text/css">
	.st0{fill:#888888;}
</style>
<g>
	<g>
		<g>
			<path class="st0" d="M75,35.3h-6.8V19.8C68.2,8.9,59.2,0,48,0S27.7,8.9,27.7,19.8v15.4H21c-6.2,0-11.3,5-11.3,11.3v38.3
				C9.8,91,14.8,96,21,96h54c6.2,0,11.3-5,11.3-11.3V46.5C86.3,40.3,81.2,35.3,75,35.3z M35.2,19.8C35.2,13,41,7.5,48,7.5
				S60.7,13,60.7,19.8v15.4H35.2V19.8L35.2,19.8z M78.8,84.8c0,2.1-1.7,3.8-3.8,3.8H21c-2.1,0-3.8-1.7-3.8-3.8V46.5
				c0-2.1,1.7-3.8,3.8-3.8h54c2.1,0,3.8,1.7,3.8,3.8V84.8z"/>
		</g>
	</g>
	<g>
		<g>
			<path class="st0" d="M48,53.6c-3.8,0-6.9,3.1-6.9,6.9c0,2.4,1.3,4.6,3.2,5.8v8.2c0,2.1,1.7,3.8,3.8,3.8s3.8-1.7,3.8-3.8v-8.2
				c1.9-1.2,3.2-3.4,3.2-5.8C54.9,56.7,51.8,53.6,48,53.6z"/>
		</g>
	</g>
</g>
</svg>
