<?xml version="1.0" encoding="utf-8"?>
<!-- Generator: Adobe Illustrator 21.1.0, SVG Export Plug-In . SVG Version: 6.00 Build 0)  -->
<svg version="1.1" id="Layer_1" xmlns="http://www.w3.org/2000/svg" xmlns:xlink="http://www.w3.org/1999/xlink" x="0px" y="0px"
	 viewBox="0 0 480 74.5" style="enable-background:new 0 0 480 74.5;" xml:space="preserve">
<style type="text/css">
	.st0{fill:#FABF41aa;}
</style>
<path class="st0" d="M0,74.5C30.5,53.6,117,0,240,0c37,0,138.6,4.8,240,74.5c-82.8,0-165.6,0-248.4,0C154.4,74.5,77.2,74.5,0,74.5z"
	/>
</svg>
