<?xml version="1.0" encoding="utf-8"?>
<!-- Generator: Adobe Illustrator 23.0.1, SVG Export Plug-In . SVG Version: 6.00 Build 0)  -->
<svg version="1.1" id="Layer_1" xmlns="http://www.w3.org/2000/svg" xmlns:xlink="http://www.w3.org/1999/xlink" x="0px" y="0px"
	 viewBox="0 0 196 196" style="enable-background:new 0 0 196 196;" xml:space="preserve">
<style type="text/css">
	.st0{fill:#3C1B48;}
	.st1{fill:none;stroke:#3C1B48;stroke-width:5;stroke-miterlimit:10;}
</style>
<path class="st0" d="M96.5,22L46.8,84.3c-1.1,1.4-0.2,3.5,1.5,3.5l20.7,0c1.1,0,2,0.9,2,2.1v82.8c0,1.2,0.9,2.1,2,2.1h50
	c1.1,0,2-0.9,2-2.1V89.9c0-1.2,0.9-2.1,2-2.1l20.7,0c1.7,0,2.6-2.1,1.5-3.5L99.5,22C98.7,21,97.3,21,96.5,22z"/>
<rect x="2.4" y="2.4" class="st1" width="191.2" height="191.2"/>
</svg>
